{
  "button": {
    "html": "<button type='button' class='btn btn-default'>Hide</button>"
  },
  "checkbox": {
    "html": "<div class='checkbox'><label><input type='checkbox' value=''>Option 1</label></div>"
  },
  "textarea": {
    "html": "<div class='form-group'><label for='comment'>Comment:</label><textarea class='form-control' rows='1' id='comment'></textarea></div>"
  }
}